Introduction to Bayesian Statistics
…
```
# A tibble: 677 × 4
   norm  profile perceptions behavior
   <chr> <chr>         <dbl>    <dbl>
 1 n0    p20           NA        5   
 2 n20   p20            6.75     6   
 3 n0    p0             6        6.5 
 4 n20   p80            6.08     6   
 5 n20   p20            7        7   
 6 n0    p80           NA        3.5 
 7 n20   p20            3.17     1.83
 8 n20   p80            5.83     5.5 
 9 n0    p80            1        1.5 
10 n80   p80            4.75     4.67
# … with 667 more rows
```
…
